load/simulation/qsim/load.msim.vcd
$comment
	File created using the following command:
		vcd file load.msim.vcd -direction
$end
$date
	Tue Oct 22 15:17:49 2024
$end
$version
	ModelSim Version 10.1d
$end
$timescale
	1ps
$end
$scope module load_vlg_vec_tst $end
$var reg 1 ! clk $end
$var reg 1 " load $end
$var reg 1 # reset $end
$var wire 1 $ pulse_out $end
$var wire 1 % sampler $end
$scope module i1 $end
$var wire 1 & gnd $end
$var wire 1 ' vcc $end
$var wire 1 ( unknown $end
$var tri1 1 ) devclrn $end
$var tri1 1 * devpor $end
$var tri1 1 + devoe $end
$var wire 1 , pulse_out~output_o $end
$var wire 1 - clk~input_o $end
$var wire 1 . clk~inputclkctrl_outclk $end
$var wire 1 / load~input_o $end
$var wire 1 0 Selector0~0_combout $end
$var wire 1 1 reset~input_o $end
$var wire 1 2 reset~inputclkctrl_outclk $end
$var wire 1 3 estando_actual.IDLE~q $end
$var wire 1 4 Selector1~0_combout $end
$var wire 1 5 estando_actual.PULSE_ON~q $end
$var wire 1 6 counter[0]~33_combout $end
$var wire 1 7 counter[0]~34 $end
$var wire 1 8 counter[1]~35_combout $end
$var wire 1 9 counter[1]~36 $end
$var wire 1 : counter[2]~37_combout $end
$var wire 1 ; counter[2]~38 $end
$var wire 1 < counter[3]~39_combout $end
$var wire 1 = counter[3]~40 $end
$var wire 1 > counter[4]~41_combout $end
$var wire 1 ? counter[4]~42 $end
$var wire 1 @ counter[5]~43_combout $end
$var wire 1 A counter[5]~44 $end
$var wire 1 B counter[6]~45_combout $end
$var wire 1 C counter[6]~46 $end
$var wire 1 D counter[7]~47_combout $end
$var wire 1 E counter[7]~48 $end
$var wire 1 F counter[8]~49_combout $end
$var wire 1 G counter[8]~50 $end
$var wire 1 H counter[9]~51_combout $end
$var wire 1 I counter[9]~52 $end
$var wire 1 J counter[10]~53_combout $end
$var wire 1 K counter[10]~54 $end
$var wire 1 L counter[11]~55_combout $end
$var wire 1 M counter[11]~56 $end
$var wire 1 N counter[12]~57_combout $end
$var wire 1 O counter[12]~58 $end
$var wire 1 P counter[13]~59_combout $end
$var wire 1 Q counter[13]~60 $end
$var wire 1 R counter[14]~61_combout $end
$var wire 1 S counter[14]~62 $end
$var wire 1 T counter[15]~63_combout $end
$var wire 1 U counter[15]~64 $end
$var wire 1 V counter[16]~65_combout $end
$var wire 1 W counter[16]~66 $end
$var wire 1 X counter[17]~67_combout $end
$var wire 1 Y counter[17]~68 $end
$var wire 1 Z counter[18]~69_combout $end
$var wire 1 [ counter[18]~70 $end
$var wire 1 \ counter[19]~71_combout $end
$var wire 1 ] counter[19]~72 $end
$var wire 1 ^ counter[20]~73_combout $end
$var wire 1 _ counter[20]~74 $end
$var wire 1 ` counter[21]~75_combout $end
$var wire 1 a counter[21]~76 $end
$var wire 1 b counter[22]~77_combout $end
$var wire 1 c counter[22]~78 $end
$var wire 1 d counter[23]~79_combout $end
$var wire 1 e counter[23]~80 $end
$var wire 1 f counter[24]~81_combout $end
$var wire 1 g counter[24]~82 $end
$var wire 1 h counter[25]~83_combout $end
$var wire 1 i counter[25]~84 $end
$var wire 1 j counter[26]~85_combout $end
$var wire 1 k counter[26]~86 $end
$var wire 1 l counter[27]~87_combout $end
$var wire 1 m LessThan1~7_combout $end
$var wire 1 n LessThan1~6_combout $end
$var wire 1 o counter[27]~88 $end
$var wire 1 p counter[28]~89_combout $end
$var wire 1 q counter[28]~90 $end
$var wire 1 r counter[29]~91_combout $end
$var wire 1 s counter[29]~92 $end
$var wire 1 t counter[30]~93_combout $end
$var wire 1 u LessThan1~8_combout $end
$var wire 1 v LessThan1~5_combout $end
$var wire 1 w LessThan1~9_combout $end
$var wire 1 x counter[30]~94 $end
$var wire 1 y counter[31]~95_combout $end
$var wire 1 z LessThan1~2_combout $end
$var wire 1 { LessThan1~1_combout $end
$var wire 1 | LessThan1~3_combout $end
$var wire 1 } LessThan1~0_combout $end
$var wire 1 ~ LessThan1~4_combout $end
$var wire 1 !! pulse_out~0_combout $end
$var wire 1 "! counter [31] $end
$var wire 1 #! counter [30] $end
$var wire 1 $! counter [29] $end
$var wire 1 %! counter [28] $end
$var wire 1 &! counter [27] $end
$var wire 1 '! counter [26] $end
$var wire 1 (! counter [25] $end
$var wire 1 )! counter [24] $end
$var wire 1 *! counter [23] $end
$var wire 1 +! counter [22] $end
$var wire 1 ,! counter [21] $end
$var wire 1 -! counter [20] $end
$var wire 1 .! counter [19] $end
$var wire 1 /! counter [18] $end
$var wire 1 0! counter [17] $end
$var wire 1 1! counter [16] $end
$var wire 1 2! counter [15] $end
$var wire 1 3! counter [14] $end
$var wire 1 4! counter [13] $end
$var wire 1 5! counter [12] $end
$var wire 1 6! counter [11] $end
$var wire 1 7! counter [10] $end
$var wire 1 8! counter [9] $end
$var wire 1 9! counter [8] $end
$var wire 1 :! counter [7] $end
$var wire 1 ;! counter [6] $end
$var wire 1 <! counter [5] $end
$var wire 1 =! counter [4] $end
$var wire 1 >! counter [3] $end
$var wire 1 ?! counter [2] $end
$var wire 1 @! counter [1] $end
$var wire 1 A! counter [0] $end
$upscope $end
$upscope $end
$enddefinitions $end
#0
$dumpvars
0!
0"
0#
0$
x%
0&
1'
x(
1)
1*
1+
0,
0-
0.
0/
00
01
02
03
04
05
16
07
08
19
0:
0;
0<
1=
0>
0?
0@
1A
0B
0C
0D
1E
0F
0G
0H
1I
0J
0K
0L
1M
0N
0O
0P
1Q
0R
0S
0T
1U
0V
0W
0X
1Y
0Z
0[
0\
1]
0^
0_
0`
1a
0b
0c
0d
1e
0f
0g
0h
1i
0j
0k
0l
0m
0n
1o
0p
0q
0r
1s
0t
0u
0v
0w
0x
0y
0z
0{
0|
0}
0~
1!!
0A!
0@!
0?!
0>!
0=!
0<!
0;!
0:!
09!
08!
07!
06!
05!
04!
03!
02!
01!
00!
0/!
0.!
0-!
0,!
0+!
0*!
0)!
0(!
0'!
0&!
0%!
0$!
0#!
0"!
$end
#5000
1!
1-
1.
0%
#10000
0!
0-
0.
1%
#15000
1!
1-
1.
0%
#20000
0!
0-
0.
1%
#25000
1!
1-
1.
0%
#30000
0!
0-
0.
1%
#35000
1!
1-
1.
0%
#40000
0!
0-
0.
1%
#45000
1"
1!
1/
1-
1.
0%
14
10
#50000
0!
0-
0.
1%
#55000
1!
1-
1.
0%
15
13
0!!
04
14
1,
1$
#60000
0!
0-
0.
1%
#65000
1!
1-
1.
0%
1A!
1}
17
06
1~
18
1!!
04
0,
0$
#70000
0!
0-
0.
1%
#75000
1!
1-
1.
0%
1@!
0A!
05
09
08
07
16
1:
19
18
0:
#80000
0!
0-
0.
1%
#85000
1!
1-
1.
0%
0@!
0}
08
0~
#90000
0!
0-
0.
1%
#95000
1!
1-
1.
0%
#100000
0!
0-
0.
1%
#105000
1!
1-
1.
0%
#110000
0!
0-
0.
1%
#115000
1!
1-
1.
0%
#120000
0!
0-
0.
1%
#125000
1!
1-
1.
0%
#130000
0!
0-
0.
1%
#135000
1!
1-
1.
0%
#140000
0!
0-
0.
1%
#145000
1!
1-
1.
0%
#150000
0!
0-
0.
1%
#155000
1!
1-
1.
0%
#160000
0!
0-
0.
1%
#165000
1!
1-
1.
0%
#170000
0!
0-
0.
1%
#175000
1!
1-
1.
0%
#180000
0!
0-
0.
1%
#185000
1!
1-
1.
0%
#190000
0!
0-
0.
1%
#195000
1!
1-
1.
0%
#200000
0!
0-
0.
1%
#205000
1!
1-
1.
0%
#210000
0!
0-
0.
1%
#215000
1!
1-
1.
0%
#220000
0!
0-
0.
1%
#225000
1!
1-
1.
0%
#230000
0!
0-
0.
1%
#235000
1!
1-
1.
0%
#240000
0!
0-
0.
1%
#245000
1!
1-
1.
0%
#250000
0!
0-
0.
1%
#255000
1!
1-
1.
0%
#260000
0!
0-
0.
1%
#265000
1!
1-
1.
0%
#270000
0"
0!
0/
0-
0.
1%
00
#275000
1!
1-
1.
0%
03
#280000
0!
0-
0.
1%
#285000
1!
1-
1.
0%
#290000
0!
0-
0.
1%
#295000
1!
1-
1.
0%
#300000
0!
0-
0.
1%
#305000
1!
1-
1.
0%
#310000
0!
0-
0.
1%
#315000
1!
1-
1.
0%
#320000
0!
0-
0.
1%
#325000
1!
1-
1.
0%
#330000
0!
0-
0.
1%
#335000
1!
1-
1.
0%
#340000
0!
0-
0.
1%
#345000
1!
1-
1.
0%
#350000
0!
0-
0.
1%
#355000
1!
1-
1.
0%
#360000
0!
0-
0.
1%
#365000
1!
1-
1.
0%
#370000
0!
0-
0.
1%
#375000
1!
1-
1.
0%
#380000
0!
0-
0.
1%
#385000
1!
1-
1.
0%
#390000
0!
0-
0.
1%
#395000
1!
1-
1.
0%
#400000
0!
0-
0.
1%
#405000
1!
1-
1.
0%
#410000
0!
0-
0.
1%
#415000
1!
1-
1.
0%
#420000
0!
0-
0.
1%
#425000
1!
1-
1.
0%
#430000
0!
0-
0.
1%
#435000
1!
1-
1.
0%
#440000
0!
0-
0.
1%
#445000
1!
1-
1.
0%
#450000
0!
0-
0.
1%
#455000
1!
1-
1.
0%
#460000
0!
0-
0.
1%
#465000
1!
1-
1.
0%
#470000
0!
0-
0.
1%
#475000
1!
1-
1.
0%
#480000
0!
0-
0.
1%
#485000
1!
1-
1.
0%
#490000
0!
0-
0.
1%
#495000
1!
1-
1.
0%
#500000
0!
0-
0.
1%
#505000
1!
1-
1.
0%
#510000
0!
0-
0.
1%
#515000
1!
1-
1.
0%
#520000
0!
0-
0.
1%
#525000
1!
1-
1.
0%
#530000
0!
0-
0.
1%
#535000
1!
1-
1.
0%
#540000
0!
0-
0.
1%
#545000
1!
1-
1.
0%
#550000
0!
0-
0.
1%
#555000
1!
1-
1.
0%
#560000
0!
0-
0.
1%
#565000
1!
1-
1.
0%
#570000
0!
0-
0.
1%
#575000
1!
1-
1.
0%
#580000
0!
0-
0.
1%
#585000
1"
1!
1/
1-
1.
0%
14
10
#590000
0!
0-
0.
1%
#595000
1!
1-
1.
0%
15
13
0!!
04
14
1,
1$
#600000
0!
0-
0.
1%
#605000
1!
1-
1.
0%
1A!
1}
17
06
1~
18
1!!
04
0,
0$
#610000
0!
0-
0.
1%
#615000
1!
1-
1.
0%
1@!
0A!
05
09
08
07
16
1:
19
18
0:
#620000
0!
0-
0.
1%
#625000
1!
1-
1.
0%
0@!
0}
08
0~
#630000
0"
0!
0/
0-
0.
1%
00
#635000
1!
1-
1.
0%
03
#640000
0!
0-
0.
1%
#645000
1!
1-
1.
0%
#650000
0!
0-
0.
1%
#655000
1!
1-
1.
0%
#660000
0!
0-
0.
1%
#665000
1!
1-
1.
0%
#670000
0!
0-
0.
1%
#675000
1"
1!
1/
1-
1.
0%
14
10
#680000
0!
0-
0.
1%
#685000
1!
1-
1.
0%
15
13
0!!
04
14
1,
1$
#690000
0!
0-
0.
1%
#695000
1!
1-
1.
0%
1A!
1}
17
06
1~
18
1!!
04
0,
0$
#700000
0!
0-
0.
1%
#705000
1!
1-
1.
0%
1@!
0A!
05
09
08
07
16
1:
19
18
0:
#710000
0!
0-
0.
1%
#715000
1!
1-
1.
0%
0@!
0}
08
0~
#720000
0"
0!
0/
0-
0.
1%
00
#725000
1!
1-
1.
0%
03
#730000
0!
0-
0.
1%
#735000
1!
1-
1.
0%
#740000
0!
0-
0.
1%
#745000
1!
1-
1.
0%
#750000
0!
0-
0.
1%
#755000
1!
1-
1.
0%
#760000
0!
0-
0.
1%
#765000
1"
1!
1/
1-
1.
0%
14
10
#770000
0!
0-
0.
1%
#775000
1!
1-
1.
0%
15
13
0!!
04
14
1,
1$
#780000
0!
0-
0.
1%
#785000
1!
1-
1.
0%
1A!
1}
17
06
1~
18
1!!
04
0,
0$
#790000
0!
0-
0.
1%
#795000
1!
1-
1.
0%
1@!
0A!
05
09
08
07
16
1:
19
18
0:
#800000
0!
0-
0.
1%
#805000
1!
1-
1.
0%
0@!
0}
08
0~
#810000
0"
0!
0/
0-
0.
1%
00
#815000
1!
1-
1.
0%
03
#820000
0!
0-
0.
1%
#825000
1!
1-
1.
0%
#830000
0!
0-
0.
1%
#835000
1!
1-
1.
0%
#840000
0!
0-
0.
1%
#845000
1!
1-
1.
0%
#850000
0!
0-
0.
1%
#855000
1"
1!
1/
1-
1.
0%
14
10
#860000
0!
0-
0.
1%
#865000
1!
1-
1.
0%
15
13
0!!
04
14
1,
1$
#870000
0!
0-
0.
1%
#875000
1!
1-
1.
0%
1A!
1}
17
06
1~
18
1!!
04
0,
0$
#880000
0!
0-
0.
1%
#885000
1!
1-
1.
0%
1@!
0A!
05
09
08
07
16
1:
19
18
0:
#890000
0!
0-
0.
1%
#895000
1!
1-
1.
0%
0@!
0}
08
0~
#900000
0"
0!
0/
0-
0.
1%
00
#905000
1!
1-
1.
0%
03
#910000
0!
0-
0.
1%
#915000
1!
1-
1.
0%
#920000
0!
0-
0.
1%
#925000
1!
1-
1.
0%
#930000
0!
0-
0.
1%
#935000
1!
1-
1.
0%
#940000
0!
0-
0.
1%
#945000
1"
1!
1/
1-
1.
0%
14
10
#950000
0!
0-
0.
1%
#955000
1!
1-
1.
0%
15
13
0!!
04
14
1,
1$
#960000
0!
0-
0.
1%
#965000
1!
1-
1.
0%
1A!
1}
17
06
1~
18
1!!
04
0,
0$
#970000
0!
0-
0.
1%
#975000
1!
1-
1.
0%
1@!
0A!
05
09
08
07
16
1:
19
18
0:
#980000
0!
0-
0.
1%
#985000
1!
1-
1.
0%
0@!
0}
08
0~
#990000
0"
0!
0/
0-
0.
1%
00
#995000
1!
1-
1.
0%
03
